<?xml version="1.0" encoding="utf-8"?>
<!-- Generator: Adobe Illustrator 17.0.0, SVG Export Plug-In . SVG Version: 6.00 Build 0)  -->
<!DOCTYPE svg PUBLIC "-//W3C//DTD SVG 1.1//EN" "http://www.w3.org/Graphics/SVG/1.1/DTD/svg11.dtd">
<svg version="1.1" xmlns="http://www.w3.org/2000/svg" xmlns:xlink="http://www.w3.org/1999/xlink" x="0px" y="0px" width="20px"
	 height="83px" viewBox="0 0 20 83" enable-background="new 0 0 20 83" xml:space="preserve">
<g id="Слой_2">
</g>
<g id="Layer_1">
	<g>
		<g>
			<path fill-rule="evenodd" clip-rule="evenodd" fill="#FFFFFF" d="M10.277,0H9.723C4.353,0,0,4.354,0,9.723v0.557
				C0,15.648,4.353,20,9.723,20h0.555C15.648,20,20,15.648,20,10.279V9.723C20,4.354,15.648,0,10.277,0z M12.05,7.184h-0.007
				l-0.927-0.096H11.09L10.997,7.1l-0.033,0.014l-0.107,0.051c-0.022,0.004-0.039,0.016-0.053,0.031l-0.079,0.082
				c-0.018,0.021-0.033,0.047-0.047,0.076c-0.013,0.027-0.024,0.055-0.033,0.084s-0.015,0.061-0.02,0.096
				c-0.005,0.029-0.007,0.061-0.007,0.094l0.014,0.941l1.364,0.012l-0.198,1.488l-1.18,0.043v4.328l-0.006,0.006H8.771v-4.371H7.777
				V8.58h0.954V8.568l0.007-0.02l0.033-1.594l0.013-0.09V6.82l0.014-0.043c0.005-0.035,0.013-0.066,0.026-0.096
				c0.009-0.029,0.022-0.059,0.04-0.084c0.018-0.062,0.042-0.119,0.072-0.17c0.027-0.057,0.06-0.109,0.1-0.16
				c0.031-0.047,0.068-0.09,0.112-0.133c0.04-0.047,0.082-0.09,0.126-0.127V6.002L9.593,5.76C9.641,5.73,9.694,5.705,9.752,5.684
				c0.053-0.021,0.112-0.041,0.179-0.057l0.364-0.07h0.238l1.683,0.127h0.007L12.05,7.184z"/>
		</g>
	</g>
	<g>
		<g>
			<path fill-rule="evenodd" clip-rule="evenodd" fill="#FFFFFF" d="M10.277,63H9.723C4.353,63,0,67.353,0,72.723v0.556
				C0,78.647,4.353,83,9.723,83h0.555C15.648,83,20,78.647,20,73.278v-0.556C20,67.353,15.648,63,10.277,63z M14.444,74.909
				c0,0.787-0.595,1.425-1.328,1.425H6.884c-0.733,0-1.328-0.638-1.328-1.425v-3.818c0-0.786,0.595-1.424,1.328-1.424h6.232
				c0.733,0,1.328,0.638,1.328,1.424V74.909z M9.111,74.611l2.538-1.793l-2.538-1.794V74.611z"/>
		</g>
	</g>
	<g>
		<g>
			<path fill="#FFFFFF" d="M10.251,51.15c0.15-0.007,0.306-0.045,0.467-0.113c0.176-0.075,0.297-0.179,0.363-0.312
				c0.066-0.132,0.1-0.286,0.1-0.462c0-0.129-0.036-0.261-0.108-0.397c-0.072-0.136-0.185-0.234-0.337-0.295
				c-0.146-0.058-0.317-0.089-0.514-0.095c-0.198-0.005-0.492-0.008-0.884-0.008H9.186v1.692h0.275
				C9.837,51.161,10.101,51.157,10.251,51.15z M11.075,52.616c-0.133-0.046-0.315-0.072-0.549-0.077
				c-0.233-0.006-0.545-0.009-0.936-0.009H9.186v2.004h0.117c0.571,0,0.967-0.004,1.186-0.011c0.219-0.008,0.442-0.056,0.669-0.146
				c0.2-0.078,0.346-0.193,0.438-0.346c0.092-0.152,0.138-0.325,0.138-0.518c0-0.247-0.055-0.44-0.164-0.58
				C11.459,52.794,11.295,52.688,11.075,52.616z M10.277,42H9.723C4.353,42,0,46.353,0,51.723v0.556C0,57.647,4.353,62,9.723,62
				h0.555C15.648,62,20,57.647,20,52.278v-0.556C20,46.353,15.648,42,10.277,42z M13.746,54.599
				c-0.165,0.301-0.386,0.55-0.663,0.746c-0.329,0.236-0.69,0.405-1.083,0.505C11.606,55.95,11.106,56,10.5,56H7.002v-7.997h3.088
				c0.642,0,1.127,0.023,1.458,0.067c0.331,0.045,0.641,0.139,0.931,0.281c0.312,0.154,0.546,0.36,0.701,0.618
				c0.154,0.258,0.231,0.555,0.231,0.892c0,0.39-0.106,0.737-0.319,1.042c-0.214,0.304-0.508,0.528-0.884,0.671v0.043
				c0.54,0.104,0.973,0.316,1.297,0.637c0.325,0.32,0.487,0.753,0.487,1.297C13.992,53.948,13.91,54.298,13.746,54.599z"/>
		</g>
	</g>
	<g>
		<path fill-rule="evenodd" clip-rule="evenodd" fill="#FFFFFF" d="M12.003,29.324h0.992c0.217,0,0.394-0.178,0.394-0.394v-0.943
			c0-0.219-0.177-0.396-0.394-0.396h-0.992c-0.218,0-0.394,0.178-0.394,0.396v0.943C11.608,29.146,11.785,29.324,12.003,29.324z"/>
		<ellipse fill-rule="evenodd" clip-rule="evenodd" fill="#FFFFFF" cx="10.008" cy="30.981" rx="1.761" ry="1.706"/>
		<path fill-rule="evenodd" clip-rule="evenodd" fill="#FFFFFF" d="M10.277,21H9.723C4.353,21,0,25.354,0,30.723v0.557
			C0,36.648,4.353,41,9.723,41h0.555C15.648,41,20,36.648,20,31.279v-0.557C20,25.354,15.648,21,10.277,21z M14.384,34.258
			c0,0.619-0.506,1.127-1.126,1.127H6.742c-0.619,0-1.126-0.508-1.126-1.127v-6.516c0-0.619,0.507-1.125,1.126-1.125h6.516
			c0.62,0,1.126,0.506,1.126,1.125V34.258z"/>
		<path fill-rule="evenodd" clip-rule="evenodd" fill="#FFFFFF" d="M12.734,31.076c0,1.459-1.221,2.641-2.727,2.641
			c-1.503,0-2.725-1.182-2.725-2.641c0-0.262,0.04-0.514,0.112-0.752H6.591v3.703c0,0.191,0.157,0.35,0.35,0.35h6.103
			c0.192,0,0.35-0.158,0.35-0.35v-3.703h-0.772C12.694,30.562,12.734,30.815,12.734,31.076z"/>
	</g>
</g>
</svg>
